/Users/ashishdewalkar/Documents/eclipse-workspace/NortonWebsite/src/test/java/com/NortonWebsite/AddToCart/CheckoutPaymentValidationTest.java
/Users/ashishdewalkar/Documents/eclipse-workspace/NortonWebsite/src/test/java/com/NortonWebsite/AddToCart/StudentInfoExistTest.java
/Users/ashishdewalkar/Documents/eclipse-workspace/NortonWebsite/src/test/java/com/NortonWebsite/AddToCart/ZipCodeErrorTest.java
/Users/ashishdewalkar/Documents/eclipse-workspace/NortonWebsite/src/test/java/com/NortonWebsite/AddToCart/FreeShippingValidationTest.java
/Users/ashishdewalkar/Documents/eclipse-workspace/NortonWebsite/src/test/java/com/NortonWebsite/AddToCart/PromotionalCodeTest_MixCart.java
/Users/ashishdewalkar/Documents/eclipse-workspace/NortonWebsite/src/test/java/com/NortonWebsite/SearchBook/BookSearchResultsTest.java
/Users/ashishdewalkar/Documents/eclipse-workspace/NortonWebsite/src/test/java/com/NortonWebsite/AddToCart/CheckoutPopUpTest.java
/Users/ashishdewalkar/Documents/eclipse-workspace/NortonWebsite/src/test/java/com/NortonWebsite/AccountDashboard/MultipleShippingTest.java
/Users/ashishdewalkar/Documents/eclipse-workspace/NortonWebsite/src/test/java/com/NortonWebsite/AddToCart/PolicyLinksTest.java
/Users/ashishdewalkar/Documents/eclipse-workspace/NortonWebsite/src/test/java/com/NortonWebsite/AddToCart/MixShippingValidationTest.java
/Users/ashishdewalkar/Documents/eclipse-workspace/NortonWebsite/src/test/java/com/NortonWebsite/BookDetails/BookDetailsNYPBookTest.java
/Users/ashishdewalkar/Documents/eclipse-workspace/NortonWebsite/src/test/java/com/NortonWebsite/AddToCart/PromotionalCodeTest_LandingPage.java
/Users/ashishdewalkar/Documents/eclipse-workspace/NortonWebsite/src/test/java/com/NortonWebsite/AddToCart/ShippingChargesValidationTest.java
/Users/ashishdewalkar/Documents/eclipse-workspace/NortonWebsite/src/test/java/com/NortonWebsite/AddToCart/PromotionalCodeTest_BookDetails.java
/Users/ashishdewalkar/Documents/eclipse-workspace/NortonWebsite/src/test/java/com/NortonWebsite/AddToCart/AddToCartTest_ExistingUser.java
/Users/ashishdewalkar/Documents/eclipse-workspace/NortonWebsite/src/test/java/com/NortonWebsite/BookDetails/BookDetailseItemBookTest.java
/Users/ashishdewalkar/Documents/eclipse-workspace/NortonWebsite/src/test/java/com/NortonWebsite/AddToCart/AddToCartTest_CreateAccount.java
/Users/ashishdewalkar/Documents/eclipse-workspace/NortonWebsite/src/test/java/com/NortonWebsite/AddToCart/StudentInfoNOTExistTest.java
/Users/ashishdewalkar/Documents/eclipse-workspace/NortonWebsite/src/test/java/com/NortonWebsite/AddToCart/PromotionalCodeTest_DirectBookDetails.java
/Users/ashishdewalkar/Documents/eclipse-workspace/NortonWebsite/src/test/java/com/NortonWebsite/BookDetails/BookDetailsNYPeBookTest.java
/Users/ashishdewalkar/Documents/eclipse-workspace/NortonWebsite/src/test/java/com/NortonWebsite/BookDetails/BookISBNTest.java
/Users/ashishdewalkar/Documents/eclipse-workspace/NortonWebsite/src/test/java/com/NortonWebsite/ExamCopy/RequestExamCopyTest.java
/Users/ashishdewalkar/Documents/eclipse-workspace/NortonWebsite/src/test/java/com/NortonWebsite/SearchBook/SearchBookTest.java
/Users/ashishdewalkar/Documents/eclipse-workspace/NortonWebsite/src/test/java/com/NortonWebsite/AccountDashboard/AccountDashboardPageTest.java
/Users/ashishdewalkar/Documents/eclipse-workspace/NortonWebsite/src/test/java/com/NortonWebsite/BookDetails/BookDetailsTest.java
/Users/ashishdewalkar/Documents/eclipse-workspace/NortonWebsite/src/test/java/com/NortonWebsite/AddToCart/RemoveCartItemTest.java
